January,2019-01-31,2019-01-15
February,2019-02-28,2019-02-15
March,2019-03-29,2019-03-15
April,2019-04-30,2019-04-15
May,2019-05-31,2019-05-15
June,2019-06-28,2019-06-19
July,2019-07-31,2019-07-15
August,2019-08-30,2019-08-15
September,2019-09-30,2019-09-18
October,2019-10-31,2019-10-15
November,2019-11-29,2019-11-15
December,2019-12-31,2019-12-18
